^C:\USERS\WILLIS\DESKTOP\V15\SAMPLE.RC
C:\USERS\WILLIS\DESKTOP\V15\DEBUG\SAMPLE.RES
^\\UEAHOME4\STUSCI1\KFF12YNU\DATA\NTPROFILE\DESKTOP\V15\SAMPLE.RC
\\UEAHOME4\STUSCI1\KFF12YNU\DATA\NTPROFILE\DESKTOP\V15\DEBUG\SAMPLE.RES
